TimeStamp,Origin,Trip,Destination,ScheduledTime,Lateness,Track,Status
1473895712,"North Station","177","Newburyport",1473896100,0,"2","Now Boarding"
1473895712,"North Station","223","Haverhill",1473896400,0,,"On Time"
1473895712,"North Station","341","Lowell",1473899700,0,,"On Time"
1473895712,"North Station","429","Fitchburg",1473900300,0,,"On Time"
1473895712,"North Station","125","Rockport",1473900300,0,,"On Time"
1473895712,"North Station","179","Newburyport",1473901800,0,,"On Time"
1473895712,"North Station","225","Haverhill",1473902400,0,,"On Time"
1473895712,"North Station","343","Lowell",1473903900,0,,"On Time"
1473895712,"North Station","127","Rockport",1473906000,0,,"On Time"
1473895712,"North Station","431","Fitchburg",1473907200,0,,"On Time"
1473895712,"North Station","181","Newburyport",1473907800,0,,"On Time"
1473895712,"North Station","345","Lowell",1473908100,0,,"On Time"
1473895712,"North Station","227","Haverhill",1473908400,0,,"On Time"
1473895712,"South Station","051","Kingston",1473895740,0,"13","All Aboard"
1473895712,"South Station","831","Providence",1473895800,0,"7","All Aboard"
1473895712,"South Station","625","Needham Heights",1473895800,0,"3","All Aboard"
1473895712,"South Station","551","Worcester / Union Station",1473896100,0,"1","Now Boarding"
1473895712,"South Station","531","Worcester / Union Station",1473896700,0,,"On Time"
1473895712,"South Station","725","Forge Park / 495",1473896700,0,,"On Time"
1473895712,"South Station","027","Middleboro/Lakeville",1473898020,0,,"On Time"
1473895712,"South Station","783","Readville",1473898500,0,,"On Time"
1473895712,"South Station","091","Greenbush",1473899100,0,,"On Time"
1473895712,"South Station","533","Worcester / Union Station",1473899400,0,,"On Time"
1473895712,"South Station","833","Providence",1473899400,0,,"On Time"
1473895712,"South Station","627","Needham Heights",1473900600,0,,"On Time"
1473895712,"South Station","785","Readville",1473901200,0,,"On Time"
1473895712,"South Station","727","Forge Park / 495",1473901200,0,,"On Time"
1473895712,"South Station","055","Kingston",1473903000,0,,"On Time"
1473895712,"South Station","535","Worcester / Union Station",1473903300,0,,"On Time"
1473895712,"South Station","925","Stoughton",1473903600,0,,"On Time"
1473895712,"South Station","629","Needham Heights",1473904200,0,,"On Time"
1473895712,"South Station","787","Readville",1473904800,0,,"On Time"